…
unga_sixgrams <- unga_sixgrams %>%
  group_by(doc_id) %>%
  count(word1,word2,word3,word4,word5,word6, sort = TRUE)

unga_sixgrams
```

    ## # A tibble: 35,709 x 8
    ## # Groups:   doc_id [6,609]
    ##    doc_id          word1     word2    word3    word4    word5    word6       n
    ##    <chr>           <chr>     <chr>    <chr>    <chr>    <chr>    <chr>   <int>
    ##  1 GMB_50_1995.txt 22nd      plenary  meeting  fiftieth session  13          5
    ##  2 GMB_50_1995.txt assembly  22nd     plenary  meeting  fiftieth session     5
    ##  3 GMB_50_1995.txt meeting   fiftieth session  13       october  1995        5
    ##  4 GMB_50_1995.txt plenary   meeting  fiftieth session  13       october     5
    ##  5 ZAF_50_1995.txt 22nd      plenary  meeting  fiftieth session  13          5
    ##  6 ZAF_50_1995.txt assembly  22nd     plenary  meeting  fiftieth session     5
    ##  7 ZAF_50_1995.txt meeting   fiftieth session  13       october  1995        5
    ##  8 ZAF_50_1995.txt plenary   meeting  fiftieth session  13       october     5
    ##  9 PRK_50_1995.txt beloved   leader   comrade  kim      il       sung        4
    ## 10 PRK_50_1995.txt respected supreme  leader   comrade  kim      jong        4
    ## # ... with 35,699 more rows
…
